{
  "project_info": {
    "project_number": "757584735529",
    "project_id": "search-31fe1",
    "storage_bucket": "search-31fe1.appspot.com"
  },
  "client": [
    {
      "client_info": {
        "mobilesdk_app_id": "1:757584735529:android:95a37dd0293cc661325b38",
        "android_client_info": {
          "package_name": "com.example.search_items"
        }
      },
      "oauth_client": [
        {
          "client_id": "757584735529-kt04s26bu39qsaar4ku3fnp7pg39mr29.apps.googleusercontent.com",
          "client_type": 3
        }
      ],
      "api_key": [
        {
          "current_key": "AIzaSyAoe0Hn02iZaUjcF8BC9ooXLMVwlU6ed04"
        }
      ],
      "services": {
        "appinvite_service": {
          "other_platform_oauth_client": [
            {
              "client_id": "757584735529-kt04s26bu39qsaar4ku3fnp7pg39mr29.apps.googleusercontent.com",
              "client_type": 3
            }
          ]
        }
      }
    }
  ],
  "configuration_version": "1"
}